stationId,name,shortName,latitude,longitude,river,country,floodStage,alarmStage,waterLevel,rainFall,rainFall1H,rainFall6H,rainFall12H,rainFall24H,rainFall7to7,meanSeaLevel,wlSensorType,stationType,wlSensor,rainfallSensor,tempSensor,batterySensor,wqSensors,parsingEnabled,showOnWebsite,sortOrder,successRate,lastStatus,lastMeasurement,notes,notice,timezone
092600,Jinghong,NA,22.01597,100.80222,Mekong,China,-99.0,-99.0,537.66,0.0,,,,,,,BUBBLE,CHINA,True,True,True,True,False,True,True,1,24,NA,2022-05-15T07:00:00,,,8
092980,Ma’an,NA,21.91,101.26,Manan,China,-99.0,-99.0,532.65,0.0,,,,,,,BUBBLE,CHINA,True,True,True,True,False,True,True,2,24,NA,2022-05-15T07:00:00,,,8
010402,Xieng Kok,NA,20.90056,100.6364,Mekong,Lao PDR,-99.0,-99.0,9.501,0.0,0.0,0.0,0.0,0.0,0.0,,BUBBLE,STANDARD,True,True,True,True,False,True,True,40,100,NA,2022-05-15T12:00:00,,,7
011201,Luang Prabang,LUA,19.8928,102.13418,Mekong,Lao PDR,18.0,17.5,10.532,,0.0,0.0,0.0,0.0,0.0,267.195,BUBBLE,STANDARD,True,False,True,True,False,True,True,50,100,NORMAL,2022-05-15T11:45:00,,,7
011501,Ban Pakhoung,NA,19.19707,101.82158,Mekong,Lao PDR,-99.0,-99.0,10.004,0.0,0.0,0.0,0.0,1.4,1.4,,BUBBLE,JEM,True,True,True,True,False,True,True,60,100,NA,2022-05-15T12:00:00,,,7
011901,Vientiane KM4,vie,17.93098,102.61556,Mekong,Lao PDR,12.5,11.5,3.878,0.0,0.0,0.0,0.0,1.6,1.6,158.04,BUBBLE,STANDARD,True,True,True,True,False,True,True,101,100,NORMAL,2022-05-15T12:00:00,,,7
012703,Paksane,NA,18.37211,103.6641,Mekong,Lao PDR,14.5,13.5,4.739,0.0,0.0,0.0,0.0,43.8,43.8,,BUBBLE,STANDARD,True,True,True,True,False,True,True,103,100,NORMAL,2022-05-15T12:00:00,,,7
013102,Thakhek,NA,17.39861,104.8014,Mekong,Lao PDR,14.0,13.0,4.366,0.0,0.0,0.0,0.0,3.6,3.6,,BUBBLE,STANDARD,True,True,True,True,False,True,True,104,100,NORMAL,2022-05-15T12:00:00,,,7
013806,Ban Mai Singsamphan,NA,15.32472,105.5317,Mekong,Lao PDR,13.0,12.0,4.13,0.0,0.0,0.0,0.0,0.0,0.0,,BUBBLE,STANDARD,True,True,True,True,False,True,True,105,96,NORMAL,2022-05-15T06:00:00,,,7
013901,Pakse,pks,15.09976,105.81319,Mekong,Lao PDR,12.0,11.0,0.162,0.0,0.0,0.0,7.0,7.0,7.0,86.49,BUBBLE,STANDARD,True,True,True,True,False,True,True,106,100,NORMAL,2022-05-15T12:00:00,,,7
013905,Don Sahong,dsh,13.9417,105.9549,Mekong,Lao PDR,-99.0,-99.0,4.707,0.0,0.0,0.0,,,,86.49,BUBBLE,JEM,True,True,True,True,True,True,True,107,100,NA,2022-05-15T12:00:00,,,7
100102,Muong Ngoy,NA,20.5721,102.61702,Nam Ou,Lao PDR,17.5,16.5,6.216,0.0,0.0,0.0,0.0,2.0,2.0,,BUBBLE,STANDARD,True,True,True,True,False,True,True,108,100,NORMAL,2022-05-15T12:00:00,,,7
120101,Ban Mixai,NA,19.78606,102.18314,Nam Khan,Lao PDR,9.5,9.0,-0.481,0.0,0.0,0.0,0.0,0.0,0.0,298.83,BUBBLE,STANDARD,True,True,True,True,False,True,True,109,100,NORMAL,2022-05-15T12:00:00,,,7
230113,Phiengluang,NA,19.56826,103.0713,Nam Ngum,Lao PDR,8.5,7.5,1.528,0.0,0.0,0.0,0.0,,,,BUBBLE,STANDARD,True,True,True,True,False,True,True,111,28,NODATA,2022-05-11T11:30:00,,,7
260101,Muang Kao,BMI,18.56193,103.72594,Nam Sane,Lao PDR,8.0,7.0,4.18,0.0,0.0,,,,,,BUBBLE,DROUGHT,True,True,True,True,False,True,True,113,0,NODATA,2021-09-07T18:45:00,,,7
270101,Phonesy,PS,18.30233,104.09739,Nam Ca Ding,Lao PDR,14.75,13.75,2.336,0.0,0.0,0.0,0.0,0.0,0.0,,BUBBLE,DROUGHT,True,True,True,True,False,True,True,115,100,NORMAL,2022-05-15T12:00:00,,,7
270502,Ban Nape,NA,18.30457,105.07359,Nam Phao,Lao PDR,5.5,4.5,0.684,0.0,0.0,0.0,0.0,0.0,0.0,,RADAR,STANDARD,True,True,True,True,False,True,True,117,100,NORMAL,2022-05-15T12:00:00,,,7
320107,Mahaxai,NA,17.4179,105.19847,Se Bang Fai,Lao PDR,15.0,14.0,4.96,0.0,0.0,0.0,0.0,1.2,1.2,,BUBBLE,STANDARD,True,True,True,True,False,True,True,119,100,NORMAL,2022-05-15T12:00:00,,,7
320101,Se Bangfai,NA,17.07652,104.98537,Se Bang Fai,Lao PDR,18.5,17.5,8.417,0.0,0.0,0.0,0.0,3.0,3.5,125.0,RADAR,STANDARD,True,True,True,True,False,True,True,121,100,NORMAL,2022-05-15T12:00:00,Bridge,,7
350102,Phalane,PL,16.65811,105.56256,Se Sangsoy,Lao PDR,-99.0,-99.0,1.456,0.0,0.2,0.4,0.6,1.4,1.2,,RADAR,DROUGHT,True,True,True,True,False,True,True,123,100,NA,2022-05-15T12:00:00,,,7
350101,Ban Kengdone,NA,16.18727,105.31287,Se Bang Hieng,Lao PDR,16.5,15.0,1.931,0.0,0.0,0.5,0.5,36.5,36.0,121.29,BUBBLE,STANDARD,True,True,True,True,False,True,True,125,100,NORMAL,2022-05-15T12:00:00,,,7
350105,Sopnam,NA,16.68719,106.21497,Se Bang Hieng,Lao PDR,17.0,16.0,2.526,0.0,0.0,0.0,0.0,3.8,3.8,,BUBBLE,STANDARD,True,True,True,True,False,True,True,127,100,NORMAL,2022-05-15T12:00:00,,,7
360106,Ban Sebangnouane,SN,16.00281,105.47915,Sebangnouane,Lao PDR,-99.0,-99.0,1.81,0.0,0.0,0.0,0.0,,,,RADAR,DROUGHT,True,True,True,True,False,True,True,129,32,NODATA,2022-05-11T01:00:00,,,7
390102,Khongsedone,KSD,15.57774,105.81052,Nam Sedone,Lao PDR,13.3,12.3,1.72,2.2,2.2,8.2,8.2,95.4,142.0,,BUBBLE,DROUGHT,True,True,True,True,False,True,True,131,100,NORMAL,2022-05-15T12:00:00,,,7
430106,Ban Veunkhen,NA,14.8192,106.80566,Se Kong,Lao PDR,16.0,15.0,5.407,0.0,0.5,12.5,21.5,21.5,9.0,97.042,BUBBLE,STANDARD,True,True,True,True,False,True,True,133,100,NORMAL,2022-05-15T12:00:00,,,7
010501,Chiang Saen,CSA,20.27412,100.08855,Mekong,Thailand,12.8,11.5,4.107,0.0,0.0,0.0,0.0,0.0,0.0,357.11,BUBBLE,STANDARD,True,True,True,True,False,True,True,200,100,NORMAL,2022-05-15T11:45:00,,,7
011903,Chiang Khan,ckh,17.90026,101.66989,Mekong,Thailand,16.0,14.5,6.695,0.0,0.0,0.0,0.0,1.0,1.0,194.118,BUBBLE,STANDARD,True,True,True,True,False,True,True,202,100,NORMAL,2022-05-15T12:00:00,,,7
012002,Nong Khai 2,,17.87775,102.71667,Mekong,Thailand,12.2,11.4,0.661,0.0,0.0,0.0,0.0,0.0,0.0,,BUBBLE,STANDARD,True,True,True,True,False,True,True,203,0,NODATA,2022-04-11T23:45:00,,Nong Khai 2 station is currently under testing on Water Level reading.,7
012001,Nong Khai,non,17.88144,102.7322,Mekong,Thailand,12.2,11.4,3.332,0.0,0.0,0.0,0.0,3.5,3.5,153.648,SHAFT_ENCODER,STANDARD,True,True,True,True,False,True,True,204,100,NORMAL,2022-05-15T12:00:00,,,7
012702,Bueng Kan,,18.401388,103.58111,Mekong,Thailand,12.2,11.4,3.719,0.0,0.0,0.0,0.0,2.8,2.8,,BUBBLE,STANDARD,True,True,True,True,False,True,True,205,100,NORMAL,2022-05-15T12:00:00,,Bueng Kan station is currently under testing on Water Level reading.,7
013101,Nakhon Phanom,nak,17.42537,104.77393,Mekong,Thailand,12.0,11.5,4.252,0.0,0.0,,,,,130.961,BUBBLE,STANDARD,True,True,True,True,False,True,True,206,0,NODATA,2021-10-05T15:15:00,,Nakhon Phanom station is currently experiencing technical issues on Water Level reading. We are aware of this and are actively working on resolving it.,7
013402,Mukdahan,muk,16.5828,104.73318,Mekong,Thailand,12.5,12.0,3.202,0.0,0.0,0.5,0.5,12.5,12.0,124.219,BUBBLE,STANDARD,True,True,True,True,False,True,True,208,100,NORMAL,2022-05-15T12:00:00,,,7
013601,Amnat Chareon,,16.225834,105.01361,Mekong,Thailand,-99.0,-99.0,2.521,0.0,0.2,2.0,2.0,2.0,2.0,,BUBBLE,STANDARD,True,True,True,True,False,True,True,209,0,NODATA,2022-04-29T23:45:00,,Amnat Chareon station is currently under testing on Water Level reading.,7
013801,Khong Chiam,kho,15.32209,105.49348,Mekong,Thailand,14.5,13.5,3.653,0.0,0.0,0.0,0.0,0.0,0.0,89.03,BUBBLE,STANDARD,True,True,True,True,False,True,True,210,100,NORMAL,2022-05-15T12:00:00,,,7
050106,Ban Doi Hang,BDH,19.93361,99.75472,Nam Mae Kok,Thailand,-99.0,-99.0,1.243,0.0,0.0,0.0,0.0,4.5,4.5,,BUBBLE,STANDARD,True,True,True,True,False,True,True,212,100,NA,2022-05-15T12:00:00,,,7
070103,Thoeng,NA,19.68843,100.18723,Nam Mae Ing,Thailand,8.0,7.5,2.417,0.0,0.0,-49137.0,-127756.2,-235857.6,-226030.2,359.096,RADAR,STANDARD,True,True,True,True,False,True,True,214,100,NORMAL,2022-05-15T12:00:00,,,7
150101,Wang Saphung,NA,17.29986,101.77597,Nam Loei,Thailand,9.0,8.0,1.009,0.0,0.0,0.0,0.0,1.0,1.5,239.182,SHAFT_ENCODER,STANDARD,True,True,True,True,False,True,True,216,100,NORMAL,2022-05-15T12:00:00,,,7
290102,Ban Tha Kok Daeng,NA,17.86564,103.77433,Nam Sonkhran,Thailand,13.0,12.0,1.306,0.0,0.0,0.0,0.0,0.0,0.0,134.894,RADAR,STANDARD,True,True,True,True,False,True,True,218,0,NODATA,2022-04-11T23:45:00,,Ban Tha Kok Daeng station is currently experiencing technical issues on Water Levels reading. We are aware of this and are actively working on resolving it.,7
290113,Ban Had Paeng,NA,17.67546,104.28622,Nam Sonkhran,Thailand,13.0,12.5,4.203,0.0,0.0,0.0,0.0,0.0,0.5,132.641,BUBBLE,STANDARD,True,True,True,True,False,True,True,220,100,NORMAL,2022-05-15T12:00:00,,,7
014003,Koh Key,KK,13.679922,106.048706,Mekong,Cambodia,-99.0,-99.0,2.844,0.0,0.0,0.0,0.0,0.0,0.0,,BUBBLE,STANDARD,True,True,True,True,False,True,True,310,100,NA,2022-05-15T12:00:00,,,7
014501,Stung Treng,str,13.5325,105.95019,Mekong,Cambodia,12.0,10.7,3.518,0.0,0.0,0.0,0.0,0.0,0.0,36.79,BUBBLE,STANDARD,True,True,True,True,False,True,True,315,100,NORMAL,2022-05-15T11:45:00,,,7
014901,Kratie,kra,12.48141,106.01762,Mekong,Cambodia,23.0,22.0,9.126,0.0,0.0,0.0,0.0,0.0,0.0,-1.08,BUBBLE,STANDARD,True,True,True,True,False,True,True,325,100,NORMAL,2022-05-15T12:00:00,,,7
430102,Siempang,NA,14.115139,106.38795,Sekong,Cambodia,12.5,11.5,2.537,0.0,0.0,0.0,0.0,4.5,4.5,,BUBBLE,STANDARD,True,True,True,True,False,True,True,332,100,NORMAL,2022-05-15T11:45:00,,,7
440102,Voeun Sai,NA,13.96858,106.88483,Sesan,Cambodia,-99.0,-99.0,2.594,0.0,0.0,0.0,0.0,3.0,3.0,,BUBBLE,STANDARD,True,True,True,True,False,True,True,335,100,NA,2022-05-15T12:00:00,,,7
450101,Lumphat,NA,13.50088,106.97115,Sre Pok,Cambodia,-99.0,-99.0,2.397,0.0,0.0,0.0,0.0,0.0,0.0,,BUBBLE,STANDARD,True,True,True,True,False,True,True,340,100,NA,2022-05-15T12:00:00,,,7
020102,Prek Kdam,pre,11.81117,104.80678,Tonlesap,Cambodia,10.0,9.5,1.874,0.0,0.0,0.0,0.0,0.0,0.0,0.08,SHAFT_ENCODER,STANDARD,True,True,True,True,False,True,True,342,100,NORMAL,2022-05-15T12:00:00,,,7
033401,Chaktomuk,NA,11.56299,104.93529,Bassac,Cambodia,12.0,10.5,2.626,,0.0,0.0,0.0,0.0,0.0,-1.02,BUBBLE,STANDARD,True,False,True,True,False,True,True,345,85,NORMAL,2022-05-15T12:00:00,,,7
033402,Koh Khel,KKH,11.275147,105.02935,Bassac,Cambodia,8.41,7.9,2.599,0.0,0.0,0.0,0.0,0.0,0.0,-1.0,,STANDARD,True,True,True,True,False,True,True,347,100,NORMAL,2022-05-15T12:00:00,,,7
530101,Sisophon,NA,13.58665,102.97661,Stung  Mongkolborey,Cambodia,-99.0,-99.0,4.671,0.0,0.0,0.0,0.0,0.0,0.0,,BUBBLE,STANDARD,True,True,True,True,False,True,True,349,100,NA,2022-05-15T11:45:00,,Sisophon station is currently experiencing technical issues on Water Level reading. We are aware of this and are actively working on resolving it.,7
550102,Battambang,NA,13.092,103.20028,Sangker,Cambodia,-99.0,-99.0,7.364,0.0,0.0,0.0,0.0,0.0,0.0,-1.766,RADAR,STANDARD,True,True,True,True,False,True,True,350,100,NA,2022-05-15T12:00:00,,Battambang station is currently experiencing technical issues on Water Level reading. We are aware of this and are actively working on resolving it.,7
020106,Kompong Luong,NA,12.57662,104.20779,Tonlesap,Cambodia,-99.0,-99.0,1.052,0.0,0.0,0.0,0.0,0.0,0.0,0.64,BUBBLE,STANDARD,True,True,True,True,False,True,True,351,100,NA,2022-05-15T12:00:00,,,7
590101,Boribo,BRB,12.38491,104.48661,Stung Boribo,Cambodia,-99.0,-99.0,0.202,0.0,0.0,27.2,27.4,27.4,27.4,,BUBBLE,DROUGHT,True,True,True,True,False,True,True,352,0,NODATA,2019-09-08T21:30:00,,,7
610101,Kompong Thom,NA,12.71483,104.88792,Stung Sen,Cambodia,-99.0,-99.0,8.693,0.0,0.0,0.0,0.0,0.0,0.0,-0.82,RADAR,STANDARD,True,True,True,True,False,True,True,354,100,NA,2022-05-15T12:00:00,,,7
019905,Kampong Ampil,KPA,11.65785,105.13187,Tonle Touch,Cambodia,-99.0,-99.0,1.746,0.0,0.0,0.0,0.2,0.2,0.4,,BUBBLE,DROUGHT,True,True,True,True,False,True,True,355,100,NA,2022-05-15T12:00:00,,,7
640102,Kompong Speu,NA,11.45625,104.49606,Prek Thnot,Cambodia,-99.0,-99.0,2.49,0.0,0.0,0.0,0.0,0.0,0.0,,RADAR,STANDARD,True,True,True,True,False,True,True,360,100,NA,2022-05-15T12:00:00,,,7
680103,Angkorborey,AKB,10.99395,104.97654,Stung Angkor Borey,Cambodia,-99.0,-99.0,0.43,0.0,0.0,0.0,0.0,0.0,0.0,,RADAR,DROUGHT,True,True,True,True,False,True,True,380,0,NODATA,2021-02-20T08:30:00,,,7
019803,Tan Chau,tch,10.80062,105.24802,Mekong,Vietnam,4.5,3.5,0.44,0.0,0.0,0.0,0.0,0.0,0.4,0.0,SHAFT_ENCODER,STANDARD,True,True,True,True,False,True,True,400,100,NORMAL,2022-05-15T12:00:00,,,7
039801,Chau Doc,cto,10.70528,105.13351,Bassac,Vietnam,4.0,3.0,0.496,0.0,0.0,0.0,0.0,0.0,0.0,0.0,SHAFT_ENCODER,STANDARD,True,True,True,True,False,True,True,401,100,NORMAL,2022-05-15T12:00:00,,,7
980601,Vam Nao,NA,10.57865,105.36337,Vam Nao,Vietnam,-99.0,-99.0,0.302,0.0,0.0,0.0,0.0,0.0,0.0,,SHAFT_ENCODER,STANDARD,True,True,True,True,False,True,True,402,100,NA,2022-05-15T12:00:00,,,7
019804,My Thuan,NA,10.27532,105.92632,Mekong,Vietnam,1.8,1.6,-0.451,0.0,0.0,0.0,0.0,0.0,0.0,,SHAFT_ENCODER,STANDARD,True,True,True,True,False,True,True,403,100,NORMAL,2022-05-15T12:00:00,,,7
039803,Can Tho,NA,10.052889,105.78714,Bassac,Vietnam,1.9,1.7,-0.317,0.0,0.0,0.0,0.0,10.0,10.0,,SHAFT_ENCODER,STANDARD,True,True,True,True,False,True,True,404,100,NORMAL,2022-05-15T12:00:00,,,7
908001,Cho Lach,CL,10.279167,106.12472,Ham Luong,Vietnam,-99.0,-99.0,-0.042,0.0,0.0,0.0,0.0,0.0,0.0,,SHAFT_ENCODER,DROUGHT,True,True,True,True,False,True,True,405,100,NA,2022-05-15T12:00:00,,,7
908002,My Hoa,MH,10.2225,106.34917,Ham Luong,Vietnam,-99.0,-99.0,-0.5,0.0,0.0,0.0,0.0,0.0,0.0,,SHAFT_ENCODER,DROUGHT,True,True,True,True,False,True,True,407,85,NODATA,2022-05-14T10:15:00,,,7
985203,Vam Kenh,NA,10.2743,106.73714,Mekong,Vietnam,-99.0,-99.0,0.863,0.0,0.0,0.0,0.0,0.0,0.0,,SHAFT_ENCODER,STANDARD,True,True,True,True,False,True,True,408,100,NA,2022-05-15T12:00:00,,,7
440201,Kontum,NA,14.34708,108.03423,Dak Bla,Vietnam,520.5,518.0,14.619,0.0,0.0,0.0,0.0,17.5,17.5,529.18,BUBBLE,STANDARD,True,True,True,True,False,True,True,409,100,NORMAL,2022-05-15T12:00:00,,,7
451305,Ban Don,NA,12.89791,107.78313,Se Re Pok,Vietnam,17.5,17.1,20.446,0.0,0.0,,,,,179.947,BUBBLE,STANDARD,True,True,True,True,False,True,True,410,0,NODATA,2021-11-23T15:00:00,,,7
450502,Giang Son,NA,12.510169,108.18324,Krong Ana,Vietnam,425.0,421.0,-0.001,0.0,0.0,0.0,0.0,0.0,0.0,427.904,SHAFT_ENCODER,STANDARD,True,True,True,True,False,True,True,411,100,NORMAL,2022-05-15T11:45:00,,Giang Son station is currently experiencing technical issues on Water Levels reading. We are aware of this and are actively working on resolving it.,7
450701,Duc Xuyen,NA,12.29677,107.9759,Krong Kno,Vietnam,431.5,427.5,22.14,0.0,0.0,0.0,0.0,0.0,0.0,435.434,BUBBLE,STANDARD,True,True,True,True,False,True,True,412,0,NODATA,2022-03-28T20:45:00,,,7
902602,Vi Thanh,VT,9.7761,105.45861,Xa No,Vietnam,-99.0,-99.0,0.272,0.0,0.0,0.0,0.0,0.0,7.2,,SHAFT_ENCODER,DROUGHT,True,True,True,True,False,True,True,413,100,NA,2022-05-15T12:00:00,,,7
902601,Phung Hiep,PH,9.81194,105.82361,Cai Con,Vietnam,-99.0,-99.0,-0.225,0.0,0.0,0.0,0.0,0.2,0.2,,SHAFT_ENCODER,DROUGHT,True,True,True,True,False,True,True,414,94,NA,2022-05-15T12:00:00,,,7
901503,Long Dinh,LD,10.4,106.256386,Xang,Vietnam,-99.0,-99.0,0.059,0.0,0.0,0.2,,,,,SHAFT_ENCODER,DROUGHT,True,True,True,True,False,True,True,415,99,NA,2022-05-15T12:00:00,,,7
981702,Tra Vinh,TV,9.975322,106.35421,Mekong,Vietnam,-99.0,-99.0,0.748,0.0,0.0,0.0,0.0,20.8,20.8,,SHAFT_ENCODER,STANDARD,True,True,True,True,False,True,True,500,100,NA,2022-05-15T12:00:00,,Tra Vinh station is currently under testing on Water Level reading.,7
039812,Dai Ngai,DN,9.734,106.074,Mekong,Vietnam,-99.0,-99.0,0.446,0.0,0.0,0.0,0.0,0.0,0.0,,SHAFT_ENCODER,STANDARD,True,True,True,True,False,True,True,502,100,NA,2022-05-15T12:00:00,,Dai Ngai station is currently under testing on Water Level reading.,7
