stationId,name,shortName,latitude,longitude,river,country,floodStage,alarmStage,waterLevel,rainFall,rainFall1H,rainFall6H,rainFall12H,rainFall24H,rainFall7to7,meanSeaLevel,wlSensorType,stationType,wlSensor,rainfallSensor,tempSensor,batterySensor,parsingEnabled,showOnWebsite,sortOrder,successRate,lastStatus,lastMeasurement,notes,notice,timezone
092600,Jinghong,NA,22.01597,100.80222,Mekong,China,-99,-99,535.25,0,,,,,,,BUBBLE,CHINA,true,true,true,true,true,true,1,24,NA,2021-12-21T07:00:00,,,8
092980,Ma’an,NA,21.91,101.26,Manan,China,-99,-99,532.74,0,,,,,,,BUBBLE,CHINA,true,true,true,true,true,true,2,24,NA,2021-12-21T07:00:00,,,8
010402,Xieng Kok,NA,20.90056,100.6364,Mekong,Lao PDR,-99,-99,1.595,0,0,0,0,0,0,,BUBBLE,STANDARD,true,true,true,true,true,true,40,98,NA,2021-12-21T10:30:00,,,7
011201,Luang Prabang,LUA,19.8928,102.13418,Mekong,Lao PDR,18,17.5,4.701,,0,0,0,0,0,267.195,BUBBLE,STANDARD,true,false,true,true,true,true,50,98,NORMAL,2021-12-21T10:30:00,,,7
011501,Ban Pakhoung,NA,19.19707,101.82158,Mekong,Lao PDR,-99,-99,4.651,0,0,0,0,0,0,,BUBBLE,JEM,true,true,true,true,true,true,60,97,NA,2021-12-21T10:15:00,,,7
011901,Vientiane KM4,vie,17.93098,102.61556,Mekong,Lao PDR,12.5,11.5,2.39,0,0,0,0,0,0,158.04,BUBBLE,STANDARD,true,true,true,true,true,true,101,98,NORMAL,2021-12-21T10:30:00,,,7
012703,Paksane,NA,18.37211,103.6641,Mekong,Lao PDR,14.5,13.5,6.363,0,0,0,0.2,,,,BUBBLE,STANDARD,true,true,true,true,true,true,103,0,NODATA,2021-08-05T12:45:00,,,7
013102,Thakhek,NA,17.39861,104.8014,Mekong,Lao PDR,14,13,2.668,0,0,0,0,0,0,,BUBBLE,STANDARD,true,true,true,true,true,true,104,98,NORMAL,2021-12-21T10:30:00,,,7
013806,Ban Mai Singsamphan,NA,15.32472,105.5317,Mekong,Lao PDR,13,12,3.076,0,0,0,0,0,0,,BUBBLE,STANDARD,true,true,true,true,true,true,105,98,NORMAL,2021-12-21T10:30:00,,,7
013901,Pakse,pks,15.09976,105.81319,Mekong,Lao PDR,12,11,1.35,0,0,0,0,0,0,86.49,BUBBLE,STANDARD,true,true,true,true,true,true,106,97,NORMAL,2021-12-21T10:30:00,,,7
013905,Don Sahong,dsh,13.9417,105.9549,Mekong,Lao PDR,-99,-99,6.375,0,0,0,,,,86.49,BUBBLE,JEM,true,true,true,true,true,true,107,97,NA,2021-12-21T10:30:00,,,7
100102,Muong Ngoy,NA,20.5721,102.61702,Nam Ou,Lao PDR,17.5,16.5,5.366,0,0,,,,,,BUBBLE,STANDARD,true,true,true,true,true,true,108,56,NORMAL,2021-12-21T10:30:00,,,7
120101,Ban Mixai,NA,19.78606,102.18314,Nam Khan,Lao PDR,9.5,9,-0.477,0,0,0,0,0,0,298.83,BUBBLE,STANDARD,true,true,true,true,true,true,109,68,NODATA,2021-12-19T09:00:00,,,7
230113,Phiengluang,NA,19.56826,103.0713,Nam Ngum,Lao PDR,8.5,7.5,0.892,0,0,0,0,0,0,,BUBBLE,STANDARD,true,true,true,true,true,true,111,0,NODATA,2020-10-11T06:30:00,,,7
260101,Muang Kao,BMI,18.56193,103.72594,Nam Sane,Lao PDR,8,7,4.18,0,0,,,,,,BUBBLE,DROUGHT,true,true,true,true,true,true,113,0,NODATA,2021-09-07T18:45:00,,,7
270101,Phonesy,PS,18.30233,104.09739,Nam Ca Ding,Lao PDR,14.75,13.75,0.23,0,0,0,0,0,,,BUBBLE,DROUGHT,true,true,true,true,true,true,115,97,NORMAL,2021-12-21T10:30:00,,,7
270502,Ban Nape,NA,18.30457,105.07359,Nam Phao,Lao PDR,5.5,4.5,0.885,0,0,,,,,,RADAR,STANDARD,true,true,true,true,true,true,117,82,NODATA,2021-12-20T11:45:00,,,7
320107,Mahaxai,NA,17.4179,105.19847,Se Bang Fai,Lao PDR,15,14,4.83,0,0,0,0,0,0,,BUBBLE,STANDARD,true,true,true,true,true,true,119,98,NORMAL,2021-12-21T10:30:00,,,7
320101,Se Bangfai,NA,17.07652,104.98537,Se Bang Fai,Lao PDR,18.5,17.5,9.032,0,0,0,0,0,0,125,RADAR,STANDARD,true,true,true,true,true,true,121,0,NODATA,2021-10-28T20:45:00,Bridge,,7
350102,Phalane,PL,16.65811,105.56256,Se Sangsoy,Lao PDR,-99,-99,1.236,0,0,0,0,0,0,,RADAR,DROUGHT,true,true,true,true,true,true,123,98,NA,2021-12-21T10:30:00,,,7
350101,Ban Kengdone,NA,16.18727,105.31287,Se Bang Hieng,Lao PDR,16.5,15,1.186,0,0,0,0,0,0,121.29,BUBBLE,STANDARD,true,true,true,true,true,true,125,98,NORMAL,2021-12-21T10:30:00,,,7
350105,Sopnam,NA,16.68719,106.21497,Se Bang Hieng,Lao PDR,17,16,1.353,0,0,0,0,0,0,,BUBBLE,STANDARD,true,true,true,true,true,true,127,98,NORMAL,2021-12-21T10:30:00,,,7
360106,Ban Sebangnouane,SN,16.00281,105.47915,Sebangnouane,Lao PDR,-99,-99,1.572,0,0,0,0,0,0,,RADAR,DROUGHT,true,true,true,true,true,true,129,98,NA,2021-12-21T10:30:00,,,7
390102,Khongsedone,KSD,15.57774,105.81052,Nam Sedone,Lao PDR,13.3,12.3,1.632,0,,,,,0,,BUBBLE,DROUGHT,true,true,true,true,true,true,131,97,NORMAL,2021-12-21T10:30:00,,,7
430106,Ban Veunkhen,NA,14.8192,106.80566,Se Kong,Lao PDR,16,15,5.466,0,0,0,0,0,0,97.042,BUBBLE,STANDARD,true,true,true,true,true,true,133,97,NORMAL,2021-12-21T10:30:00,,,7
010501,Chiang Saen,CSA,20.27412,100.08855,Mekong,Thailand,12.8,11.5,1.826,0,0,0,0,0,0,357.11,BUBBLE,STANDARD,true,true,true,true,true,true,200,98,NORMAL,2021-12-21T10:30:00,,,7
011903,Chiang Khan,ckh,17.90026,101.66989,Mekong,Thailand,16,14.5,4.473,0,0,0,0,0,0,194.118,BUBBLE,STANDARD,true,true,true,true,true,true,201,98,NORMAL,2021-12-21T10:30:00,,,7
012001,Nong Khai,non,17.88144,102.7322,Mekong,Thailand,12.2,11.4,1.692,0,0,0,0,0,0,153.648,SHAFT_ENCODER,STANDARD,true,true,true,true,true,true,202,98,NORMAL,2021-12-21T10:30:00,,,7
013101,Nakhon Phanom,nak,17.42537,104.77393,Mekong,Thailand,12,11.5,4.252,0,0,,,,,130.961,BUBBLE,STANDARD,true,true,true,true,true,true,203,0,NODATA,2021-10-05T15:15:00,,Nakhon Phanom station is currently experiencing technical issues on Water Level reading. We are aware of this and are actively working on resolving it.,7
013402,Mukdahan,muk,16.5828,104.73318,Mekong,Thailand,12.5,12,1.901,0,0,0,0,0,0,124.219,BUBBLE,STANDARD,true,true,true,true,true,true,204,97,NORMAL,2021-12-21T10:30:00,,,7
013801,Khong Chiam,kho,15.32209,105.49348,Mekong,Thailand,14.5,13.5,2.646,0,,,,,0,89.03,BUBBLE,STANDARD,true,true,true,true,true,true,205,97,NORMAL,2021-12-21T10:30:00,,,7
050106,Ban Doi Hang,BDH,19.93361,99.75472,Nam Mae Kok,Thailand,-99,-99,17.393,0,0,0,0,0,0,,BUBBLE,STANDARD,true,true,true,true,true,true,206,98,NA,2021-12-21T10:30:00,,,7
070103,Thoeng,NA,19.68843,100.18723,Nam Mae Ing,Thailand,8,7.5,4.294,0,0,0,0,0,0,359.096,RADAR,STANDARD,true,true,true,true,true,true,207,98,NORMAL,2021-12-21T10:30:00,,,7
150101,Wang Saphung,NA,17.29986,101.77597,Nam Loei,Thailand,9,8,0.649,0,0,0,0,0,0,239.182,SHAFT_ENCODER,STANDARD,true,true,true,true,true,true,208,98,NORMAL,2021-12-21T10:30:00,,,7
290102,Ban Tha Kok Daeng,NA,17.86564,103.77433,Nam Sonkhran,Thailand,13,12,0.567,0,0.2,13.4,31.2,39,39,134.894,RADAR,STANDARD,true,true,true,true,true,true,209,0,NODATA,2020-06-17T11:00:00,,Ban Tha Kok Daeng station is currently experiencing technical issues on Water Levels reading. We are aware of this and are actively working on resolving it.,7
290113,Ban Had Paeng,NA,17.67546,104.28622,Nam Sonkhran,Thailand,13,12.5,2.22,0,0,0,0,,,132.641,BUBBLE,STANDARD,true,true,true,true,true,true,210,97,NORMAL,2021-12-21T10:30:00,,,7
014003,Koh Key,KK,13.679922,106.048706,Mekong,Cambodia,-99,-99,1.547,0,0,0,0,0,0,,BUBBLE,STANDARD,true,true,true,true,true,true,310,98,NA,2021-12-21T10:30:00,,,7
014501,Stung Treng,str,13.5325,105.95019,Mekong,Cambodia,12,10.7,2.865,0,0,0,0,0,0,36.79,BUBBLE,STANDARD,true,true,true,true,true,true,315,98,NORMAL,2021-12-21T10:30:00,,,7
014901,Kratie,kra,12.48141,106.01762,Mekong,Cambodia,23,22,7.932,0,0,0,0,0,0,-1.08,BUBBLE,STANDARD,true,true,true,true,true,true,325,98,NORMAL,2021-12-21T10:30:00,,,7
430102,Siempang,NA,14.115139,106.38795,Sekong,Cambodia,12.5,11.5,2.489,0,0,0,0,0,0,,BUBBLE,STANDARD,true,true,true,true,true,true,332,98,NORMAL,2021-12-21T10:30:00,,,7
440102,Voeun Sai,NA,13.96858,106.88483,Sesan,Cambodia,-99,-99,3.031,0,0,0,0,0,0,,BUBBLE,STANDARD,true,true,true,true,true,true,335,98,NA,2021-12-21T10:30:00,,,7
450101,Lumphat,NA,13.50088,106.97115,Sre Pok,Cambodia,-99,-99,3.392,0,0,0,0,0,0,,BUBBLE,STANDARD,true,true,true,true,true,true,340,98,NA,2021-12-21T10:30:00,,,7
020102,Prek Kdam,pre,11.81117,104.80678,Tonlesap,Cambodia,10,9.5,3.109,0,0,0,0,0,0,0.08,SHAFT_ENCODER,STANDARD,true,true,true,true,true,true,342,98,NORMAL,2021-12-21T10:30:00,,,7
033401,Chaktomuk,NA,11.56299,104.93529,Bassac,Cambodia,12,10.5,3.406,,0,0,0,0,0,-1.02,BUBBLE,STANDARD,true,false,true,true,true,true,345,98,NORMAL,2021-12-21T10:30:00,,,7
033402,Koh Khel,KKH,11.275147,105.02935,Bassac,Cambodia,8.41,7.9,3.149,0,0,0,0,0,0,-1,,STANDARD,true,true,true,true,true,true,347,97,NORMAL,2021-12-21T10:15:00,,,7
530101,Sisophon,NA,13.58665,102.97661,Stung  Mongkolborey,Cambodia,-99,-99,2.827,0,0,,,,,,BUBBLE,STANDARD,true,true,true,true,true,true,349,0,NODATA,2021-06-16T15:30:00,,Sisophon station is currently experiencing technical issues on Water Level reading. We are aware of this and are actively working on resolving it.,7
550102,Battambang,NA,13.092,103.20028,Sangker,Cambodia,-99,-99,8.48,0,0,,,,,-1.766,RADAR,STANDARD,true,true,true,true,true,true,350,0,NODATA,2021-10-06T19:00:00,,Battambang station is currently experiencing technical issues on Water Level reading. We are aware of this and are actively working on resolving it.,7
020106,Kompong Luong,NA,12.57662,104.20779,Tonlesap,Cambodia,-99,-99,4.269,0,0,0,0,0,0,0.64,BUBBLE,STANDARD,true,true,true,true,true,true,351,98,NA,2021-12-21T10:30:00,,,7
590101,Boribo,BRB,12.38491,104.48661,Stung Boribo,Cambodia,-99,-99,0.202,0,0,27.2,27.4,27.4,27.4,,BUBBLE,DROUGHT,true,true,true,true,true,true,352,0,NODATA,2019-09-08T21:30:00,,,7
610101,Kompong Thom,NA,12.71483,104.88792,Stung Sen,Cambodia,-99,-99,7.911,0,0,0,0,0,0,-0.82,RADAR,STANDARD,true,true,true,true,true,true,354,98,NA,2021-12-21T10:30:00,,,7
019905,Kampong Ampil,KPA,11.65785,105.13187,Tonle Touch,Cambodia,-99,-99,2.038,0,0,0,0,0,0,,BUBBLE,DROUGHT,true,true,true,true,true,true,355,98,NA,2021-12-21T10:30:00,,,7
640102,Kompong Speu,NA,11.45625,104.49606,Prek Thnot,Cambodia,-99,-99,2.38,0,0,0,0,0,0,,RADAR,STANDARD,true,true,true,true,true,true,360,98,NA,2021-12-21T10:30:00,,,7
680103,Angkorborey,AKB,10.99395,104.97654,Stung Angkor Borey,Cambodia,-99,-99,0.43,0,0,0,0,0,0,,RADAR,DROUGHT,true,true,true,true,true,true,380,0,NODATA,2021-02-20T08:30:00,,,7
019803,Tan Chau,tch,10.80062,105.24802,Mekong,Vietnam,4.5,3.5,1.22,0,0,0,0,0,0,0,SHAFT_ENCODER,STANDARD,true,true,true,true,true,true,400,98,NORMAL,2021-12-21T10:30:00,,,7
039801,Chau Doc,cto,10.70528,105.13351,Bassac,Vietnam,4,3,1.173,0,0,0,0,8.5,8.5,0,SHAFT_ENCODER,STANDARD,true,true,true,true,true,true,401,44,NODATA,2021-12-17T17:15:00,,,7
980601,Vam Nao,NA,10.57865,105.36337,Vam Nao,Vietnam,-99,-99,1.062,0,0,0,0,0,0,,SHAFT_ENCODER,STANDARD,true,true,true,true,true,true,402,98,NA,2021-12-21T10:30:00,,,7
019804,My Thuan,NA,10.27532,105.92632,Mekong,Vietnam,1.8,1.6,-0.419,0,0,0,0,0,0,,SHAFT_ENCODER,STANDARD,true,true,true,true,true,true,403,98,NORMAL,2021-12-21T10:30:00,,,7
039803,Can Tho,NA,10.052889,105.78714,Bassac,Vietnam,1.9,1.7,0.038,0,0,0,0,0,0,,SHAFT_ENCODER,STANDARD,true,true,true,true,true,true,404,98,NORMAL,2021-12-21T10:30:00,,,7
908001,Cho Lach,CL,10.279167,106.12472,Ham Luong,Vietnam,-99,-99,1.423,,0,0.6,,,,,SHAFT_ENCODER,DROUGHT,true,true,true,true,true,true,405,58,NODATA,2021-12-19T17:15:00,,,7
908002,My Hoa,MH,10.2225,106.34917,Ham Luong,Vietnam,-99,-99,-1.266,0,0,0,0,0,0,,SHAFT_ENCODER,DROUGHT,true,true,true,true,true,true,407,97,NA,2021-12-21T10:30:00,,,7
985203,Vam Kenh,NA,10.2743,106.73714,Mekong,Vietnam,-99,-99,0.436,0,0,0,0,0,0,,SHAFT_ENCODER,STANDARD,true,true,true,true,true,true,408,0,NODATA,2021-08-15T07:15:00,,,7
440201,Kontum,NA,14.34708,108.03423,Dak Bla,Vietnam,520.5,518,15.631,0,0,0,0,0,0,529.18,BUBBLE,STANDARD,true,true,true,true,true,true,409,97,NORMAL,2021-12-21T10:30:00,,,7
451305,Ban Don,NA,12.89791,107.78313,Se Re Pok,Vietnam,17.5,17.1,20.446,0,0,,,,,179.947,BUBBLE,STANDARD,true,true,true,true,true,true,410,0,NODATA,2021-11-23T15:00:00,,,7
450502,Giang Son,NA,12.510169,108.18324,Krong Ana,Vietnam,425,421,16.988,0,0,0,0,0,0,427.904,SHAFT_ENCODER,STANDARD,true,true,true,true,true,true,411,0,NODATA,2020-08-20T01:00:00,,Giang Son station is currently experiencing technical issues on Water Levels reading. We are aware of this and are actively working on resolving it.,7
450701,Duc Xuyen,NA,12.29677,107.9759,Krong Kno,Vietnam,431.5,427.5,21.679,0,0,0,0,0,0,435.434,BUBBLE,STANDARD,true,true,true,true,true,true,412,98,NORMAL,2021-12-21T10:30:00,,,7
902602,Vi Thanh,VT,9.7761,105.45861,Xa No,Vietnam,-99,-99,0.691,0,0,0,0,0.2,0.2,,SHAFT_ENCODER,DROUGHT,true,true,true,true,true,true,413,72,NA,2021-12-21T10:30:00,,,7
902601,Phung Hiep,PH,9.81194,105.82361,Cai Con,Vietnam,-99,-99,0.142,0,0,0,0,0,0,,SHAFT_ENCODER,DROUGHT,true,true,true,true,true,true,414,97,NA,2021-12-21T10:30:00,,,7
901503,Long Dinh,LD,10.4,106.256386,Xang,Vietnam,-99,-99,-0.189,0,0,0,0,0,0,,SHAFT_ENCODER,DROUGHT,true,true,true,true,true,true,415,97,NA,2021-12-21T10:30:00,,,7